Desafio4
…
ℹ Use `spec()` to retrieve the full column specification for this data.
ℹ Specify the column types or set `show_col_types = FALSE` to quiet this message.

Warning in validateCoords(lng, lat, funcName): Data contains 156 rows with
either missing or invalid lat/lon values and will be ignored
Warning in validateCoords(lng, lat, funcName): Data contains 156 rows with
either missing or invalid lat/lon values and will be ignored

flights <- resultado$flights
flights

# A tibble: 1,938 × 47
    YEAR MONTH   DAY DAY_OF_WEEK AIRLINE FLIGHT_NUMBER TAIL_NUMBER
   <dbl> <dbl> <dbl>       <dbl> <chr>           <dbl> <chr>      
 1  2015     1     1           4 WN               1762 N431WN     
 2  2015     1     1           4 WN               3564 N431WN     
 3  2015     1     1           4 WN               3564 N431WN     
 4  2015     1     1           4 WN               3564 N431WN     
 5  2015     1     2           5 WN               1793 N431WN     
 6  2015     1     2           5 WN               1793 N431WN     
 7  2015     1     2           5 WN               1793 N431WN     
 8  2015     1     2           5 WN               1793 N431WN     
 9  2015     1     2           5 WN               1793 N431WN     
10  2015     1     2           5 WN               3144 N431WN     
# ℹ 1,928 more rows
# ℹ 40 more variables: ORIGIN_AIRPORT <chr>, DESTINATION_AIRPORT <chr>,
#   SCHEDULED_DEPARTURE <chr>, DEPARTURE_TIME <chr>, DEPARTURE_DELAY <dbl>,
#   TAXI_OUT <dbl>, WHEELS_OFF <chr>, SCHEDULED_TIME <dbl>, ELAPSED_TIME <dbl>,
#   AIR_TIME <dbl>, DISTANCE <dbl>, WHEELS_ON <chr>, TAXI_IN <dbl>,
#   SCHEDULED_ARRIVAL <chr>, ARRIVAL_TIME <chr>, ARRIVAL_DELAY <dbl>,
#   DIVERTED <dbl>, CANCELLED <dbl>, CANCELLATION_REASON <chr>, …
…
